<svg
   xmlns:dc="http://purl.org/dc/elements/1.1/"
   xmlns:cc="http://creativecommons.org/ns#"
   xmlns:rdf="http://www.w3.org/1999/02/22-rdf-syntax-ns#"
   xmlns:svg="http://www.w3.org/2000/svg"
   xmlns="http://www.w3.org/2000/svg"
   xmlns:xlink="http://www.w3.org/1999/xlink"
   xmlns:sodipodi="http://sodipodi.sourceforge.net/DTD/sodipodi-0.dtd"
   viewBox="0 0 20 20"
   id="svg2"
   version="1.1">
   
   <path fill="#2a2a2a"
      d="M 0,0
         h 20
         v 20
         h -20
         z"/>

   <path fill="#626262"
      d="M 1,1
         h 18
         v 18
         h -18
         z"/>
         
   <path fill="#7b7b7b"
            d="M 3,2
               h 2
               v 2
               h -1
               v -1
               h -1
               z"/>
   <path fill="#7b7b7b"
            d="M 16,2
               h 2
               v 2
               h -1
               v -1
               h -1
               z"/>
   <path fill="#7b7b7b"
            d="M 16,15
               h 2
               v 2
               h -1
               v -1
               h -1
               z"/>
   <path fill="#7b7b7b"
            d="M 3,15
               h 2
               v 2
               h -1
               v -1
               h -1
               z"/>
               
   <path fill="#4e4e4e"
            d="M 2,3
               h 1
               v 1
               h 1
               v 1
               h -2
               z"/>
   <path fill="#4e4e4e"
            d="M 15,3
               h 1
               v 1
               h 1
               v 1
               h -2
               z"/>
   <path fill="#4e4e4e"
            d="M 15,16
               h 1
               v 1
               h 1
               v 1
               h -2
               z"/>
   <path fill="#4e4e4e"
            d="M 2,16
               h 1
               v 1
               h 1
               v 1
               h -2
               z"/>
    
  <path fill="#4e4e4e"
    d="M 8,8
       L 9,8
       L 9,7
       L 11,7
       L 11,8
       L 12,8
       L 12,9
       L 13,9
       L 13,11
       L 12,11
       L 12,12
       L 11,12
       L 11,13
       L 9,13
       L 9,12
       L 8,12
       L 8,11
       L 7,11
       L 7,9
       L 8,9
       L 8,11
       L 9,11
       L 9,12
       L 11,12
       L 11,11
       L 12,11
       L 12,9
       L 11,9
       L 11,8
       L 9,8
       L 9,9
       L 8,9
       z"/>
       
  <path fill="#7b7b7b"
    d="M 8,9
       L 9,9
       9,11
       11,11
       11,12
       9,12
       9,11
       8,11
       z"/>
       
<path fill="#7b7b7b"
    d="M 11,7
       L 12,7
       12,8
       13,8
       13,9
       12,9
       12,8
       11,8
       z"/>
   
</svg>