<svg
   xmlns:dc="http://purl.org/dc/elements/1.1/"
   xmlns:cc="http://creativecommons.org/ns#"
   xmlns:rdf="http://www.w3.org/1999/02/22-rdf-syntax-ns#"
   xmlns:svg="http://www.w3.org/2000/svg"
   xmlns="http://www.w3.org/2000/svg"
   xmlns:xlink="http://www.w3.org/1999/xlink"
   xmlns:sodipodi="http://sodipodi.sourceforge.net/DTD/sodipodi-0.dtd"
   viewBox="0 0 20 20"
   id="svg2"
   version="1.1">
   
   <path fill="#00d431"
     d="M 4,2 L
        16,2
        16,3
        17,3
        17,4
        18,4
        18,16
        17,16
        17,17
        16,17
        16,18
        4,18
        4,17
        3,17
        3,16
        2,16
        2,4
        3,4
        3,3
        4,3 z"/>
        
  <path fill="#009d24"
    d="M 5,4 L
       5,3
       15,3
       15,4
       16,4
       16,5
       17,5
       17,15
       16,15
       16,16
       15,16
       15,17
       5,17
       5,16
       4,16
       4,15
       3,15
       3,5
       4,5
       4,4
       5,4
       5,5
       4,5
       4,15
       5,15
       5,16
       15,16
       15,15
       16,15
       16,5
       15,5
       15,4 z"/>
       
  <path fill="#7dff9b"
    d="M 6,2 L
      15,2
      15,3
      16,3
      16,4
      17,4
      17,5
      18,5
      18,13
      17,13
      17,5
      16,5
      16,4
      15,4
      15,3
      6,3 z"/>
      
  <path fill="#7dff9b"
    d="M 4,7 L
    5,7
    5,15
    13,15
    13,16
    5,16
    5,15
    4,15 z"/>
    
  <path fill="#009d24"
    d="M 8,8
       L 9,8
       L 9,7
       L 11,7
       L 11,8
       L 12,8
       L 12,9
       L 13,9
       L 13,11
       L 12,11
       L 12,12
       L 11,12
       L 11,13
       L 9,13
       L 9,12
       L 8,12
       L 8,11
       L 7,11
       L 7,9
       L 8,9
       L 8,11
       L 9,11
       L 9,12
       L 11,12
       L 11,11
       L 12,11
       L 12,9
       L 11,9
       L 11,8
       L 9,8
       L 9,9
       L 8,9
       z"/>
       
  <path fill="#7dff9b"
    d="M 8,9
       L 9,9
       9,11
       11,11
       11,12
       9,12
       9,11
       8,11
       z"/>
       
  <path fill="#7dff9b"
    d="M 11,7
       L 12,7
       12,8
       13,8
       13,9
       12,9
       12,8
       11,8
       z"/>
   
  <path fill="#009d24"
    d="M 8,6 L
       8,5
       12,5
       12,6
       13,6
       13,7
       14,7
       14,8
       15,8
       15,12
       14,12
       14,13
       13,13
       13,14
       12,14
       12,15
       8,15
       8,14
       7,14
       7,13
       6,13
       6,12
       5,12
       5,8
       6,8
       6,7
       7,7
       7,6
       8,6
       8,7
       7,7
       7,8
       6,8
       6,12
       7,12
       7,13
       8,13
       8,14
       12,14
       12,13
       13,13
       13,12
       14,12
       14,8
       13,8
       13,7
       12,7
       12,6 z"/>

  <path fill="#7dff9b"
    d="M 9,4
       h 3
       v 1
       h 1
       v 1
       h 1
       v 1
       h 1
       v 1
       h 1
       v 3
       h -1
       v -3
       h -1
       v -1
       h -1
       v -1
       h -1
       v -1
       h -3 z"/>
       
  <path fill="#7dff9b"
    d="M 6,8
       h 1
       v 4
       h 1
       v 1
       h 4
       v 1
       h -4
       v -1
       h -1
       v -1
       h -1 z"/>
</svg>